Zak Varty - Web Scraping with {rvest}
…
# A tibble: 3 × 2
  Name  Number
  <chr>  <int>
1 A          1
2 B          2
3 C          3

Applying this to our real scraped data we can easily extract the table of taught courses.

html %>% 
  html_element("table") %>% 
  html_table()

# A tibble: 25 × 3
   Year      Course                                   Role                      
   <chr>     <chr>                                    <chr>                     
 1 "2021-22" Supervised Learning                      Lecturer                  
 2 ""        Ethics in Data Science I                 Lecturer                  
 3 ""        Ethics in Data Science II                Lecturer                  
 4 "—"       —                                        —                         
 5 "2020-21" MATH562/582: Extreme Value Theory        Lecturer                  
 6 ""        MATH331: Bayesian Inference              Graduate teaching assista…
 7 ""        MATH330: Likelihood Inference            Graduate teaching assista…
 8 "2019-20" DSCI485: Introduction to LaTeX           Co-leading short course   
 9 ""        MATH566: Longitudinal Data Analysis      Graduate teaching assista…
10 "2018-19" STOR-i Internship: Introduction to LaTeX Co-leading short course   
# … with 15 more rows
…
