Zak Varty - Data Wrangling
…
In base R you can extract rows, columns and combinations thereof using index notation.

# First row
penguins[1, ]

# A tibble: 1 × 8
  species island    bill_length_mm bill_depth_mm flipper_l…¹ body_…² sex    year
  <fct>   <fct>              <dbl>         <dbl>       <int>   <int> <fct> <int>
1 Adelie  Torgersen           39.1          18.7         181    3750 male   2007
# … with abbreviated variable names ¹​flipper_length_mm, ²​body_mass_g

# First Column 
penguins[ , 1]

# A tibble: 344 × 1
   species
   <fct>  
 1 Adelie 
 2 Adelie 
 3 Adelie 
 4 Adelie 
 5 Adelie 
 6 Adelie 
 7 Adelie 
 8 Adelie 
 9 Adelie 
10 Adelie 
# … with 334 more rows
…
Using negative indexing you can remove rows or columns

# Drop all but first row
penguins[-(2:344), ]

# A tibble: 1 × 8
  species island    bill_length_mm bill_depth_mm flipper_l…¹ body_…² sex    year
  <fct>   <fct>              <dbl>         <dbl>       <int>   <int> <fct> <int>
1 Adelie  Torgersen           39.1          18.7         181    3750 male   2007
# … with abbreviated variable names ¹​flipper_length_mm, ²​body_mass_g

# Drop all but first column 
penguins[ , -(2:8)]

# A tibble: 344 × 1
   species
   <fct>  
 1 Adelie 
 2 Adelie 
 3 Adelie 
 4 Adelie 
 5 Adelie 
 6 Adelie 
 7 Adelie 
 8 Adelie 
 9 Adelie 
10 Adelie 
# … with 334 more rows

You can also select rows or columns by their names. This can be done using the bracket syntax ([ ]) or the dollar syntax ($).

pengins[ , "species"]

# A tibble: 344 × 1
   species
   <fct>  
 1 Adelie 
 2 Adelie 
 3 Adelie 
 4 Adelie 
 5 Adelie 
 6 Adelie 
 7 Adelie 
 8 Adelie 
 9 Adelie 
10 Adelie 
# … with 334 more rows
…
Since penguins is a tibble, these return different types of object. Sub-setting a tibble with bracket syntax will return a tibble, while extracting a column using the dollar syntax returns a vector of values.

filter() and select()

{dplyr} has two functions for subsetting, filter() subsets by rows and select() subsets by column.

In both functions you list what you would like to retain. Filter and select calls can be piped together to subset based on row and column values.

penguins %>% 
  select(species, island,body_mass_g)

# A tibble: 344 × 3
   species island    body_mass_g
   <fct>   <fct>           <int>
 1 Adelie  Torgersen        3750
 2 Adelie  Torgersen        3800
 3 Adelie  Torgersen        3250
 4 Adelie  Torgersen          NA
 5 Adelie  Torgersen        3450
 6 Adelie  Torgersen        3650
 7 Adelie  Torgersen        3625
 8 Adelie  Torgersen        4675
 9 Adelie  Torgersen        3475
10 Adelie  Torgersen        4250
# … with 334 more rows
…
# A tibble: 2 × 3
  species island body_mass_g
  <fct>   <fct>        <int>
1 Gentoo  Biscoe        6300
2 Gentoo  Biscoe        6050

Subsetting rows can be inverted by negating the filter() statement.

penguins %>% 
  select(species, island, body_mass_g) %>% 
  filter(!(body_mass_g > 6000))

# A tibble: 340 × 3
   species island    body_mass_g
   <fct>   <fct>           <int>
 1 Adelie  Torgersen        3750
 2 Adelie  Torgersen        3800
 3 Adelie  Torgersen        3250
 4 Adelie  Torgersen        3450
 5 Adelie  Torgersen        3650
 6 Adelie  Torgersen        3625
 7 Adelie  Torgersen        4675
 8 Adelie  Torgersen        3475
 9 Adelie  Torgersen        4250
10 Adelie  Torgersen        3300
# … with 330 more rows

and dropping columns can done by selecting all columns except the one(s) you want to drop.

penguins %>% 
  select(species, island, body_mass_g) %>% 
  filter(!(body_mass_g > 6000)) %>% 
  select(!c(species, island))

# A tibble: 340 × 1
   body_mass_g
         <int>
 1        3750
 2        3800
 3        3250
 4        3450
 5        3650
 6        3625
 7        4675
 8        3475
 9        4250
10        3300
# … with 330 more rows
…
